{
  "message": "",
  "result": {
    "pageSize": 10,
    "pageNo": 1,
    "totalCount": 57,
    "totalPage": 6,
    "data": [
      {
        "key": 1,
        "no": 'No 1',
        "description": "这是一段描述",
        "callNo": "123456",
        "status": "1",
        "updatedAt": "2018-07-26",
        "editable": false
      }
    ]
  },
  "status": 200,
  "timestamp": 1534955098193
}