{
  "message": "",
  "result": {
    "data": [{
        id: 1,
        cover: 'https://gw.alipayobjects.com/zos/rmsportal/WdGqmHpayyMjiEhcKoVE.png',
        description: '在中台产品的研发过程中，会出现不同的设计规范和实现方式，但其中往往存在很多类似的页面和组件，这些类似的组件会被抽离',
        status: 1,
        updatedAt: '2018-07-26'
      },
      {
        id: 2,
        cover: 'https://gw.alipayobjects.com/zos/rmsportal/WdGqmHpayyMjiEhcKoVE.png',
        description: '在中台产品的研发过程中，会出现不同的设计规范和实现方式，但其中往往存在很多类似的页面和组件，这些类似的组件会被抽离',
        status: 1,
        updatedAt: '2018-07-26'
      },
      {
        id: 3,
        cover: 'https://gw.alipayobjects.com/zos/rmsportal/WdGqmHpayyMjiEhcKoVE.png',
        description: '在中台产品的研发过程中，会出现不同的设计规范和实现方式，但其中往往存在很多类似的页面和组件，这些类似的组件会被抽离',
        status: 1,
        updatedAt: '2018-07-26'
      },
      {
        id: 4,
        cover: 'https://gw.alipayobjects.com/zos/rmsportal/WdGqmHpayyMjiEhcKoVE.png',
        description: '在中台产品的研发过程中，会出现不同的设计规范和实现方式，但其中往往存在很多类似的页面和组件，这些类似的组件会被抽离',
        status: 1,
        updatedAt: '2018-07-26'
      },
      {
        id: 5,
        cover: 'https://gw.alipayobjects.com/zos/rmsportal/WdGqmHpayyMjiEhcKoVE.png',
        description: '在中台产品的研发过程中，会出现不同的设计规范和实现方式，但其中往往存在很多类似的页面和组件，这些类似的组件会被抽离',
        status: 1,
        updatedAt: '2018-07-26'
      },
      {
        id: 6,
        cover: 'https://gw.alipayobjects.com/zos/rmsportal/WdGqmHpayyMjiEhcKoVE.png',
        description: '在中台产品的研发过程中，会出现不同的设计规范和实现方式，但其中往往存在很多类似的页面和组件，这些类似的组件会被抽离',
        status: 1,
        updatedAt: '2018-07-26'
      },
      {
        id: 7,
        cover: 'https://gw.alipayobjects.com/zos/rmsportal/WdGqmHpayyMjiEhcKoVE.png',
        description: '在中台产品的研发过程中，会出现不同的设计规范和实现方式，但其中往往存在很多类似的页面和组件，这些类似的组件会被抽离',
        status: 1,
        updatedAt: '2018-07-26'
      },
      {
        id: 8,
        cover: 'https://gw.alipayobjects.com/zos/rmsportal/WdGqmHpayyMjiEhcKoVE.png',
        description: '在中台产品的研发过程中，会出现不同的设计规范和实现方式，但其中往往存在很多类似的页面和组件，这些类似的组件会被抽离',
        status: 1,
        updatedAt: '2018-07-26'
      },
      {
        id: 9,
        cover: 'https://gw.alipayobjects.com/zos/rmsportal/WdGqmHpayyMjiEhcKoVE.png',
        description: '在中台产品的研发过程中，会出现不同的设计规范和实现方式，但其中往往存在很多类似的页面和组件，这些类似的组件会被抽离',
        status: 1,
        updatedAt: '2018-07-26'
      },
      {
        id: 10,
        cover: 'https://gw.alipayobjects.com/zos/rmsportal/WdGqmHpayyMjiEhcKoVE.png',
        description: '在中台产品的研发过程中，会出现不同的设计规范和实现方式，但其中往往存在很多类似的页面和组件，这些类似的组件会被抽离',
        status: 1,
        updatedAt: '2018-07-26'
      }
    ],
    "pageSize": 10,
    "pageNo": 0,
    "totalPage": 6,
    "totalCount": 57
  },
  "status": 200,
  "timestamp": 1534955098193
}